ST 558 Final Project EDA Document
…
diabetes_data$DiffWalk <- factor(diabetes_data$DiffWalk, levels = c(0, 1), labels = c("no_difficulty", "difficulty"))

diabetes_data$Sex <- factor(diabetes_data$Sex, levels = c(0, 1), labels = c("female", "male"))

diabetes_data$Age <- factor(diabetes_data$Age, levels = c(1, 2, 3, 4, 5, 6, 7, 8, 9, 10, 11, 12, 13), labels = c("18_24", "25_29", "30_34", "35_39", "40_44", "45_49", "50_54", "55_59", "60_64", "65_69", "70_74", "75_79", "80_or_more"))

diabetes_data$Education <- factor(diabetes_data$Education, levels = c(1, 2, 3, 4, 5, 6), labels = c("none", "elementary", "some_hs", "high_school", "some_college", "college_grad"))

diabetes_data$Income <- factor(diabetes_data$Income, levels = c(1, 2, 3, 4, 5, 6, 7, 8), labels = c("less_10k", "10k_15k", "15k_20k", "20k_25k", "25k_35k", "35k_50k", "50k_75k", "more_75k"))

#Check that columns have been converted correctly.
diabetes_data

# A tibble: 253,680 × 22
   Diabetes_binary HighBP HighChol     CholCheck       BMI Smoker     Stroke   
   <fct>           <fct>  <fct>        <fct>         <dbl> <fct>      <fct>    
 1 no_diabetes     hbp    high_chol    chol_check       40 smoker     no_stroke
 2 no_diabetes     no_hbp no_high_chol no_chol_check    25 smoker     no_stroke
 3 no_diabetes     hbp    high_chol    chol_check       28 non_smoker no_stroke
 4 no_diabetes     hbp    no_high_chol chol_check       27 non_smoker no_stroke
 5 no_diabetes     hbp    high_chol    chol_check       24 non_smoker no_stroke
 6 no_diabetes     hbp    high_chol    chol_check       25 smoker     no_stroke
 7 no_diabetes     hbp    no_high_chol chol_check       30 smoker     no_stroke
 8 no_diabetes     hbp    high_chol    chol_check       25 smoker     no_stroke
 9 diabetes        hbp    high_chol    chol_check       30 smoker     no_stroke
10 no_diabetes     no_hbp no_high_chol chol_check       24 non_smoker no_stroke
# ℹ 253,670 more rows
# ℹ 15 more variables: HeartDiseaseorAttack <fct>, PhysActivity <fct>,
#   Fruits <fct>, Veggies <fct>, HvyAlcoholConsump <fct>, AnyHealthcare <fct>,
#   NoDocbcCost <fct>, GenHlth <fct>, MentHlth <dbl>, PhysHlth <dbl>,
#   DiffWalk <fct>, Sex <fct>, Age <fct>, Education <fct>, Income <fct>
…
