ST 558 Final Project EDA Document
…
The following object is masked from 'package:purrr':

    lift

#Set the seed at 100 for reproducibility.
set.seed(100)

#Use the createDataPartition from the caret package. Get 70% of the rows.
trainIndex <- createDataPartition(diabetes_data$Diabetes_binary, p =0.7, list = FALSE)
#Assign those 70% to the training dataset.
diabetes_train <- diabetes_data[trainIndex, ]
diabetes_train

# A tibble: 177,577 × 22
   Diabetes_binary HighBP HighChol     CholCheck       BMI Smoker     Stroke   
   <fct>           <fct>  <fct>        <fct>         <dbl> <fct>      <fct>    
 1 no_diabetes     hbp    high_chol    chol_check       40 smoker     no_stroke
 2 no_diabetes     no_hbp no_high_chol no_chol_check    25 smoker     no_stroke
 3 no_diabetes     hbp    no_high_chol chol_check       27 non_smoker no_stroke
 4 no_diabetes     hbp    high_chol    chol_check       24 non_smoker no_stroke
 5 no_diabetes     hbp    high_chol    chol_check       25 smoker     no_stroke
 6 no_diabetes     hbp    no_high_chol chol_check       30 smoker     no_stroke
 7 no_diabetes     hbp    high_chol    chol_check       25 smoker     no_stroke
 8 diabetes        hbp    high_chol    chol_check       30 smoker     no_stroke
 9 diabetes        no_hbp no_high_chol chol_check       25 smoker     no_stroke
10 no_diabetes     hbp    high_chol    chol_check       34 smoker     no_stroke
# ℹ 177,567 more rows
# ℹ 15 more variables: HeartDiseaseorAttack <fct>, PhysActivity <fct>,
#   Fruits <fct>, Veggies <fct>, HvyAlcoholConsump <fct>, AnyHealthcare <fct>,
#   NoDocbcCost <fct>, GenHlth <fct>, MentHlth <dbl>, PhysHlth <dbl>,
#   DiffWalk <fct>, Sex <fct>, Age <fct>, Education <fct>, Income <fct>
…
#Create the tuneGrid by making a dataframe of the cp parameter that starts at 0, goes to 0.1 and counts by 0.001.
tune_parameter <- data.frame(cp = seq(0, 0.1, by = 0.001))

#Create a classification tree using predictors of HighBP, HighChol, Heart Disease or Attack, General Health Rating, and Difficulty Walking to predict the presence of diabetes.
#Use rpart for the method.
#Use the train control defined above (5 fold cross validation) and the tuneGrid defined above.

diabetes_train

# A tibble: 177,577 × 22
   Diabetes_binary HighBP HighChol     CholCheck       BMI Smoker     Stroke   
   <fct>           <fct>  <fct>        <fct>         <dbl> <fct>      <fct>    
 1 no_diabetes     hbp    high_chol    chol_check       40 smoker     no_stroke
 2 no_diabetes     no_hbp no_high_chol no_chol_check    25 smoker     no_stroke
 3 no_diabetes     hbp    no_high_chol chol_check       27 non_smoker no_stroke
 4 no_diabetes     hbp    high_chol    chol_check       24 non_smoker no_stroke
 5 no_diabetes     hbp    high_chol    chol_check       25 smoker     no_stroke
 6 no_diabetes     hbp    no_high_chol chol_check       30 smoker     no_stroke
 7 no_diabetes     hbp    high_chol    chol_check       25 smoker     no_stroke
 8 diabetes        hbp    high_chol    chol_check       30 smoker     no_stroke
 9 diabetes        no_hbp no_high_chol chol_check       25 smoker     no_stroke
10 no_diabetes     hbp    high_chol    chol_check       34 smoker     no_stroke
# ℹ 177,567 more rows
# ℹ 15 more variables: HeartDiseaseorAttack <fct>, PhysActivity <fct>,
#   Fruits <fct>, Veggies <fct>, HvyAlcoholConsump <fct>, AnyHealthcare <fct>,
#   NoDocbcCost <fct>, GenHlth <fct>, MentHlth <dbl>, PhysHlth <dbl>,
#   DiffWalk <fct>, Sex <fct>, Age <fct>, Education <fct>, Income <fct>
…
